[
  {
    "name": "theme_info",
    "theme_name": "Dawn",
    "theme_version": "2.2.0",
    "theme_author": "Shopify",
    "theme_documentation_url": "https:\/\/help.shopify.com\/manual\/online-store\/themes\/os20\/themes-by-shopify\/dawn",
    "theme_support_url": "https:\/\/support.shopify.com\/"
  },
  {
    "name": "Typography",
    "settings": [
      {
        "type": "header",
        "content": "Typography"
      },
      {
        "type": "font_picker",
        "id": "type_header_font",
        "default": "assistant_n4",
        "label": "t:settings_schema.typography.settings.type_header_font.label",
        "info": "t:settings_schema.typography.settings.type_header_font.info"
      },
      {
        "type": "color",
        "id": "type_header_font_color",
        "label": "Header Font Color"
      },
      {
        "type": "header",
        "content": "t:settings_schema.typography.settings.header__2.content"
      },
      {
        "type": "font_picker",
        "id": "type_body_font",
        "default": "assistant_n4",
        "label": "t:settings_schema.typography.settings.type_body_font.label",
        "info": "t:settings_schema.typography.settings.type_body_font.info"
      },
      {
        "type": "color",
        "id": "type_body_font_color",
        "label": "Body Font Color"
      }
    ]
  },
  {
    "name": "Colors",
    "settings": [
      {
        "type": "header",
        "content": "Colors"
      },
      {
        "type": "color",
        "id": "color1",
        "default": "#FFFFFF",
        "label": "Color 1"
      },
      {
        "type": "color",
        "id": "color2",
        "default": "#FFFFFF",
        "label": "Color 2"
      },
      {
        "type": "color",
        "id": "color3",
        "default": "#FFFFFF",
        "label": "Color 3"
      },
      {
        "type": "color",
        "id": "color4",
        "default": "#FFFFFF",
        "label": "Color 4"
      },
      {
        "type": "color",
        "id": "color5",
        "default": "#FFFFFF",
        "label": "Color 5"
      },
      {
        "type": "color",
        "id": "color6",
        "default": "#FFFFFF",
        "label": "Color 6"
      },
      {
        "type": "color",
        "id": "color7",
        "default": "#FFFFFF",
        "label": "Color 7"
      }
    ]
  },
  {
    "name": "Buttons",
    "settings": [
      {
        "type": "header",
        "content": "Buttons"
      },
      {
        "type": "color",
        "id": "button_primary_color_bkg",
        "default": "#FFFFFF",
        "label": "Primary Background Color"
      },
      {
        "type": "color",
        "id": "button_primary_color_text",
        "default": "#FFFFFF",
        "label": "Primary Text Color"
      },
      {
        "type": "color",
        "id": "button_secondary_color_bkg",
        "default": "#FFFFFF",
        "label": "Secondary Background Color"
      },
      {
        "type": "color",
        "id": "button_secondary_color_text",
        "default": "#FFFFFF",
        "label": "Secondary Text Color"
      },
      {
        "type": "color",
        "id": "action_color_text",
        "default": "#FFFFFF",
        "label": "Action Text Color"
      },
      {
        "type": "text",
        "id": "button_radius",
        "label": "Button Radius"
      },
      {
        "type": "image_picker",
        "id": "slider_arrow",
        "label": "Slider Arrow"
      }
    ]
  },
  {
    "name": "Backgrounds",
    "settings": [
      {
        "type": "image_picker",
        "id": "black_image_left",
        "label": "Negative left background"
      },
      {
        "type": "image_picker",
        "id": "black_image_right",
        "label": "Negative right background"
      },
      {
        "type": "image_picker",
        "id": "white_image_left",
        "label": "Positive left background"
      },
      {
        "type": "image_picker",
        "id": "white_image_right",
        "label": "Positive right background"
      }
    ]
  },
  {
    "name": "Sections",
    "settings": [
      {
        "type": "color_background",
        "id": "colors_positive_bkg_color",
        "default": "#FFFFFF",
        "label": "Positive section background color"
      },
      {
        "type": "color",
        "id": "colors_font_positive",
        "default": "#FFFFFF",
        "label": "Positive section text color"
      },
      {
        "type": "color_background",
        "id": "colors_negative_bkg_color",
        "default": "#FFFFFF",
        "label": "Negative section background color"
      },
      {
        "type": "color",
        "id": "colors_font_negative",
        "default": "#FFFFFF",
        "label": "Negative section text color"
      },
      {
        "type": "text",
        "id": "lg_vertical_space",
        "default": "128px",
        "label": "Large vertical space"
      },
      {
        "type": "text",
        "id": "md_vertical_space",
        "default": "64px",
        "label": "Medium vertical space"
      }
    ]
  },
  {
    "name": "Radius",
    "settings": [
      {
        "type": "text",
        "id": "radius_images",
        "label": "Images radius"
      },
      {
        "type": "text",
        "id": "radius_card",
        "label": "Card radius"
      },
      {
        "type": "text",
        "id": "radius_input",
        "label": "Input radius"
      }
    ]
  },
  {
    "name": "t:settings_schema.social-media.name",
    "settings": [
      {
        "type": "header",
        "content": "Twitter"
      },
      {
        "type": "image_picker",
        "id": "social_twitter_icon",
        "label": "Icon"
      },
      {
        "type": "text",
        "id": "social_twitter_link",
        "label": "Link",
        "info": "t:settings_schema.social-media.settings.social_twitter_link.info"
      },
      {
        "type": "header",
        "content": "Facebook"
      },
      {
        "type": "image_picker",
        "id": "social_facebook_icon",
        "label": "Icon"
      },
      {
        "type": "text",
        "id": "social_facebook_link",
        "label": "t:settings_schema.social-media.settings.social_facebook_link.label",
        "info": "t:settings_schema.social-media.settings.social_facebook_link.info"
      },
      {
        "type": "header",
        "content": "Instagram"
      },
      {
        "type": "image_picker",
        "id": "social_instagram_icon",
        "label": "Icon"
      },
      {
        "type": "text",
        "id": "social_instagram_link",
        "label": "t:settings_schema.social-media.settings.social_instagram_link.label",
        "info": "t:settings_schema.social-media.settings.social_instagram_link.info"
      },
      {
        "type": "header",
        "content": "Youtube"
      },
      {
        "type": "image_picker",
        "id": "social_youtube_icon",
        "label": "Icon"
      },
      {
        "type": "text",
        "id": "social_youtube_link",
        "label": "t:settings_schema.social-media.settings.social_youtube_link.label",
        "info": "t:settings_schema.social-media.settings.social_youtube_link.info"
      },
      {
        "type": "header",
        "content": "Linkedin"
      },
      {
        "type": "image_picker",
        "id": "social_linkedin_icon",
        "label": "Icon"
      },
      {
        "type": "text",
        "id": "social_linkedin_link",
        "label": "Linkedin"
      }
    ]
  },
  {
    "name": "t:settings_schema.search_input.name",
    "settings": [
      {
        "type": "header",
        "content": "t:settings_schema.search_input.settings.header.content"
      },
      {
        "type": "checkbox",
        "id": "predictive_search_enabled",
        "default": true,
        "label": "t:settings_schema.search_input.settings.predictive_search_enabled.label"
      },
      {
        "type": "checkbox",
        "id": "predictive_search_show_vendor",
        "default": false,
        "label": "t:settings_schema.search_input.settings.predictive_search_show_vendor.label",
        "info": "t:settings_schema.search_input.settings.predictive_search_show_vendor.info"
      },
      {
        "type": "checkbox",
        "id": "predictive_search_show_price",
        "default": true,
        "label": "t:settings_schema.search_input.settings.predictive_search_show_price.label",
        "info": "t:settings_schema.search_input.settings.predictive_search_show_price.info"
      }
    ]
  },
  {
    "name": "t:settings_schema.favicon.name",
    "settings": [
      {
        "type": "image_picker",
        "id": "favicon",
        "label": "t:settings_schema.favicon.settings.favicon.label",
        "info": "t:settings_schema.favicon.settings.favicon.info"
      }
    ]
  },
  {
    "name": "t:settings_schema.currency_format.name",
    "settings": [
      {
        "type": "header",
        "content": "t:settings_schema.currency_format.settings.content"
      },
      {
        "type": "paragraph",
        "content": "t:settings_schema.currency_format.settings.paragraph"
      },
      {
        "type": "checkbox",
        "id": "currency_code_enabled",
        "label": "t:settings_schema.currency_format.settings.currency_code_enabled.label",
        "default": true
      }
    ]
  },
  {
    "name": "Tracking and Cookies",
    "settings": [
      {
        "type": "text",
        "id": "cookie_bot",
        "label": "Cookie Bot Id"
      }
    ]
  },
  {
    "name": "General",
    "settings": [
      {
        "type": "text",
        "id": "free_shipping_threshold",
        "label": "Free Shipping Threshold"
      }
    ]
  }
]
