{
  "sections": {
    "16373121013d178c47": {
      "type": "main-blog-title",
      "settings": {
        "main_blog_title": ""
      }
    },
    "1637586047c517615d": {
      "type": "featured-blog",
      "settings": {
        "blog_handle": "notizie\/l-importanza-di-affiancare-i-trattamenti-professionali-alla-routine-di-bellezza-domiciliare",
        "blog_label": "In evidenza",
        "blog_cta_label": "Leggi di più"
      }
    },
    "main": {
      "type": "main-blog",
      "settings": {
        "layout": "collage",
        "show_image": true,
        "image_height": "medium",
        "show_date": true,
        "show_author": false
      }
    }
  },
  "order": [
    "16373121013d178c47",
    "1637586047c517615d",
    "main"
  ]
}
