{
  "sections": {
    "banner": {
      "type": "main-collection-banner",
      "settings": {
        "show_collection_description": true,
        "show_collection_image": true
      }
    },
    "product-grid": {
      "type": "main-collection-product-grid",
      "settings": {
        "products_per_page": 12,
        "image_ratio": "adapt",
        "show_secondary_image": true,
        "add_image_padding": false,
        "show_image_outline": true,
        "show_vendor": true,
        "add_to_cart_type": "button",
        "card_alignment": true,
        "enable_filtering": true,
        "enable_sorting": true,
        "collapse_on_larger_devices": false
      }
    }
  },
  "order": [
    "banner",
    "product-grid"
  ]
}
