{
  "sections": {
    "main": {
      "type": "main-product",
      "settings": {
        "general_info": "",
        "facebook": true,
        "whatsapp": true,
        "email": false,
        "twitter": false
      }
    },
    "component-product-claim": {
      "type": "component-product-claim",
      "settings": {
        "component_claim_background": "{{ product.metafields.my_fields.component_claim_background.value }}",
        "component_claim_text_color": "{{ product.metafields.my_fields.component_claim_text_color.value }}",
        "component_claim_content": "<p>{{ product.metafields.my_fields.component_claim_content.value }}<\/p>"
      }
    },
    "accordion": {
      "type": "accordion",
      "settings": {
      }
    },
    "component-product-three-col": {
      "type": "component-product-three-col",
      "settings": {
        "comp_3col__title": "{{ product.metafields.my_fields.comp_3col__title.value }}",
        "comp_3col__content": "<p>{{ product.metafields.my_fields.comp_3col__content.value }}<\/p>",
        "comp_3col__col1_title": "{{ product.metafields.my_fields.comp_3col__col1_title.value }}",
        "comp_3col__col1_desc": "<p>{{ product.metafields.my_fields.comp_3col__col1_desc.value }}<\/p>",
        "comp_3col__col1_img": "{{ product.metafields.my_fields.comp_3col__col1_img.value }}",
        "comp_3col__col2_title": "{{ product.metafields.my_fields.comp_3col__col2_title.value }}",
        "comp_3col__col2_desc": "<p>{{ product.metafields.my_fields.comp_3col__col2_desc.value }}<\/p>",
        "comp_3col__col2_img": "{{ product.metafields.my_fields.comp_3col__col2_img.value }}",
        "comp_3col__col3_title": "{{ product.metafields.my_fields.comp_3col__col3_title.value }}",
        "comp_3col__col3_desc": "<p>{{ product.metafields.my_fields.comp_3col__col3_desc.value }}<\/p>",
        "comp_3col__col3_img": "{{ product.metafields.my_fields.comp_3col__col3_img.value }}"
      }
    },
    "component-product-text-with-image": {
      "type": "component-product-text-with-image",
      "settings": {
        "component_text_image_title": "{{ product.metafields.my_fields.component_text_image_title.value }}",
        "component_text_image_description": "<p>{{ product.metafields.my_fields.component_text_image_desc.value }}<\/p>",
        "component_text_image_image": "{{ product.metafields.my_fields.component_text_image_image.value }}",
        "component_text_image_disposition": "image_after"
      }
    },
    "component-product-video": {
      "type": "component-product-video",
      "settings": {
        "component_video_title": "{{ product.metafields.my_fields.component_video_title.value }}",
        "component_video_description": "<p>{{ product.metafields.my_fields.component_video_description.value }}<\/p>",
        "component_video_embed": "<p>{{ product.metafields.my_fields.component_video_embed.value }} <\/p>",
        "component_video_image": "{{ product.metafields.my_fields.component_video_image.value }}"
      }
    },
    "product-recommendations": {
      "type": "product-recommendations",
      "settings": {
        "section_title": "Per un risultato ottimale",
        "section_title_align": "center",
        "section_background_align": "left",
        "section_title_size": "normal",
        "section_title_multiline": false
      }
    },
    "1644511900de067bb5": {
      "type": "featured-blog",
      "settings": {
        "blog_handle": "",
        "blog_label": "Da sapere",
        "blog_cta_label": "Leggi di più"
      }
    }
  },
  "order": [
    "main",
    "component-product-claim",
    "accordion",
    "component-product-three-col",
    "component-product-text-with-image",
    "component-product-video",
    "product-recommendations",
    "1644511900de067bb5"
  ]
}
